﻿#Select appropriate main event or default
hold_court_event_selection = {
	random_events = {
		100 = hold_court.1001
		100 = hold_court.1011
		100 = hold_court.1021
		100 = hold_court.1031
		100 = hold_court.1041

		100 = hold_court.3000
		100 = hold_court.3010
		100 = hold_court.3020
		100 = hold_court.3030
		100 = hold_court.3040
		100 = hold_court.3060
		50 = hold_court.3070
		100 = hold_court.3080
		100 = hold_court.3090
		100 = hold_court.3091

		25 = hold_court.4001
		25 = hold_court.4100
		25 = hold_court.4200
		100 = hold_court.4300
		100 = hold_court.4400
		50 = hold_court.4500
		50 = hold_court.4600
		100 = hold_court.4700
		100 = hold_court.4800
		100 = hold_court.4900

		100 = hold_court.5001
		100 = hold_court.5010
		100 = hold_court.5020
		100 = hold_court.5030

		100 = hold_court.6000
		100 = hold_court.6010
		100 = hold_court.6020
		100 = hold_court.6030
		100 = hold_court.6040
		# 100 = hold_court.6051 # Anbennar
		100 = hold_court.6060
		100 = hold_court.6070
		100 = hold_court.6080
		100 = hold_court.6090
		100 = hold_court.6100
		100 = hold_court.6110
		100 = hold_court.6120
		100 = hold_court.6130
		100 = hold_court.6140
		100 = hold_court.6150
		100 = hold_court.6160
		100 = hold_court.6170
		100 = hold_court.6180
		100 = hold_court.6190
		100 = hold_court.6200
		100 = hold_court.6210
		100 = hold_court.6220
		# 100 = hold_court.6230 # Anbennar

		100 = hold_court.7000
		100 = hold_court.7010
		100 = hold_court.7020
		100 = hold_court.7030
		100 = hold_court.7040
		100 = hold_court.7050
		100 = hold_court.7060
		# 100 = hold_court.7070 # Anbennar
		
		100 = hold_court.8001
		100 = hold_court.8010
		100 = hold_court.8020
		100 = hold_court.8030
		100 = hold_court.8040
		100 = hold_court.8050
		100 = hold_court.8060
		100 = hold_court.8070
		100 = hold_court.8080
		100 = hold_court.8090
		100 = hold_court.8100
		100 = hold_court.8110
		100 = hold_court.8120
		100 = hold_court.8130
		100 = hold_court.8140
		100 = hold_court.8150
		100 = hold_court.8160
		100 = hold_court.8161
		100 = hold_court.8170
		100 = hold_court.8180
		100 = hold_court.8190
		100 = hold_court.8200
		100 = hold_court.8210
		100 = hold_court.8220
		100 = hold_court.8240
		100 = hold_court.8241
		100 = hold_court.8250
		100 = hold_court.8251
		100 = hold_court.8260
		100 = hold_court.8270
		100 = hold_court.8280
	}
}
