﻿# Anbennar - racial

priest_character_template = {
	age = { 30 60 }
	random_traits_list = {
		count = 1
		education_learning_2 = {}
		education_learning_3 = {}
		education_learning_4 = {}
	}
	random_traits = yes
	
	faith = root.faith
	culture = root.culture
	gender_female_chance = root_faith_clergy_gender_female_chance
	learning = {
		min_template_high_skill
		max_template_high_skill
	}

	#Anbennar
	after_creation = {
		add_character_flag = {
			flag = need_priest_outfit
		}
		if = {
			limit = {
				NOT = { has_racial_trait = yes }
			}
			assign_racial_trait_effect = yes
		}
	}
}

virtuous_priest_character_template = {
	age = { 30 60 }
	random_traits_list = {
		count = 1
		education_learning_2 = {}
		education_learning_3 = {}
		education_learning_4 = {}
	}
	#Virtue Personality
	#Give them traits which are considered virtuous in their faith. Traits which would be the opposite of a neutral personality are omitted.
	random_traits_list = {
		count = 3
		lustful = {
			trigger = {
				root.faith = { trait_is_virtue = lustful }
			}
		}
		chaste = {
			trigger = {
				root.faith = { trait_is_virtue = chaste }
			}
		}
		gluttonous = {
			trigger = {
				root.faith = { trait_is_virtue = gluttonous }
			}
		}
		temperate = {
			trigger = {
				root.faith = { trait_is_virtue = temperate }
			}
		}
		greedy = {
			trigger = {
				root.faith = { trait_is_virtue = greedy }
			}
		}
		generous = {
			trigger = {
				root.faith = { trait_is_virtue = generous }
			}
		}
		wrathful = {
			trigger = {
				root.faith = { trait_is_virtue = wrathful }
			}
		}
		calm = {
			trigger = {
				root.faith = { trait_is_virtue = calm }
			}
		}
		patient = {
			trigger = {
				root.faith = { trait_is_virtue = patient }
			}
		}
		impatient = {
			trigger = {
				root.faith = { trait_is_virtue = impatient }
			}
		}
		arrogant = {
			trigger = {
				root.faith = { trait_is_virtue = arrogant }
			}
		}
		humble = {
			trigger = {
				root.faith = { trait_is_virtue = humble }
			}
		}
		deceitful = {
			trigger = {
				root.faith = { trait_is_virtue = deceitful }
			}
		}
		honest = {
			trigger = {
				root.faith = { trait_is_virtue = honest }
			}
		}
		craven = {
			trigger = {
				root.faith = { trait_is_virtue = craven }
			}
		}
		brave = {
			trigger = {
				root.faith = { trait_is_virtue = brave }
			}
		}
		ambitious = {
			trigger = {
				root.faith = { trait_is_virtue = ambitious }
			}
		}
		content = {
			trigger = {
				root.faith = { trait_is_virtue = content }
			}
		}
		arbitrary = {
			trigger = {
				root.faith = { trait_is_virtue = arbitrary }
			}
		}
		just = {
			trigger = {
				root.faith = { trait_is_virtue = just }
			}
		}
		paranoid = {
			trigger = {
				root.faith = { trait_is_virtue = paranoid }
			}
		}
		trusting = {
			trigger = {
				root.faith = { trait_is_virtue = trusting }
			}
		}
		compassionate = {
			trigger = {
				root.faith = { trait_is_virtue = compassionate }
			}
		}
		callous = {
			trigger = {
				root.faith = { trait_is_virtue = callous }
			}
		}
		sadistic = {
			trigger = {
				root.faith = { trait_is_virtue = sadistic }
			}
		}
		stubborn = {
			trigger = {
				root.faith = { trait_is_virtue = stubborn }
			}
		}
		fickle = {
			trigger = {
				root.faith = { trait_is_virtue = fickle }
			}
		}
		vengeful = {
			trigger = {
				root.faith = { trait_is_virtue = vengeful }
			}
		}
		forgiving = {
			trigger = {
				root.faith = { trait_is_virtue = forgiving }
			}
		}
	}
	
	faith = root.faith
	culture = root.culture
	gender_female_chance = root_faith_clergy_gender_female_chance
	learning = {
		min_template_high_skill
		max_template_high_skill
	}


	#Anbennar
	after_creation = {
		add_character_flag = {
			flag = need_priest_outfit
		}
		if = {
			limit = {
				NOT = { has_racial_trait = yes }
			}
			assign_racial_trait_effect = yes
		}
	}
}

monk_character_template = {
	age = { 25 60 }
	dynasty = none
	random_traits_list = {
		count = 1
		education_learning_2 = {}
		education_learning_3 = {}
		education_learning_4 = {}
	}
	trait = devoted
	random_traits = yes
	faith = root.faith
	culture = root.culture
	gender_female_chance = root_faith_clergy_gender_female_chance
	learning = {
		min_template_high_skill
		max_template_high_skill
	}
	#Anbennar
	after_creation = {
		if = {
			limit = {
				NOT = { has_racial_trait = yes }
			}
			assign_racial_trait_effect = yes
		}
	}
}
