﻿
#Anbennar - has some helms from xangelo and co

special_genes = {

accessory_genes = {

#####################################
#									#
# 			  HEADGEAR 			    #
#									#
#####################################

	
	headgear = {
	
	
		################################ Anbennar #####################################################################
		
		kheteratan_high_nobility = {
			index = 200
			male = {
				2 = empty
				1 = male_headgear_secular_kheteratan_common_01	
				1 = male_headgear_egyptian_nemes_common				
			}
			female = {
				5 = empty
				1 = female_headgear_kheteratan_common_01				
			}
			boy = male
			girl = female
		}	

		kheteratan_common = {
			index = 201
			male = {
				5 = empty
				10 = male_headgear_secular_mena_common_01
				10 = male_headgear_egyptian_nemes_common				
			}
			female = {
				10 = empty
				5 = female_headgear_secular_mena_common_01
				5 = female_headgear_secular_mena_common_02


			}
			boy = male
			girl = female
		}

		kheteratan_royalty = {
			index = 202
			male = {
				1 = male_headgear_secular_kheteratan_common_01
				2 = male_headgear_secular_kheteratan_common_01_color2		
				2 = male_headgear_secular_kheteratan_common_01_color3
				2 = male_headgear_secular_kheteratan_common_01_color4	
				1 = male_headgear_egyptian_nemes_low				
			}
			female = {
				1 = empty
				1 = female_headgear_kheteratan_common_01
				1 = female_headgear_kheteratan_common_01_color2		
				1 = female_headgear_kheteratan_common_01_color3
				1 = female_headgear_kheteratan_common_01_color4		
				
			}
			boy = male
			girl = female
		}

		kheteratan_imperial = {
			index = 203
			male = {
				5 = male_headgear_egyptian_nemes_high					
				2 = male_headgear_secular_kheteratan_common_01_color2		
				2 = male_headgear_secular_kheteratan_common_01_color3
				2 = male_headgear_secular_kheteratan_common_01_color4	
				
			}
			female = {
				1 = female_headgear_kheteratan_common_01_color2		
				1 = female_headgear_kheteratan_common_01_color3
				1 = female_headgear_kheteratan_common_01_color4		
				
			}
			boy = male
			girl = female
		}
		kheteratan_war = {
			index = 204
			male = {
				1 = male_headgear_secular_kheteratan_war_common_01
				1 = male_headgear_secular_kheteratan_war_common_02				
				
			}
			female = {
				1 = female_helmet_kheteratan_war_common_01
				1 = female_helmet_kheteratan_war_common_02				
			}
			boy = male
			girl = female
		}	

		elvish_nobility = {
            index = 205
            male = {
                1 = empty
            }
            female = {
				#3 = empty
                1 = female_headgear_secular_mena_nobility_01
				1 = female_headgear_secular_indian_nobility_02
            }
            boy = male
            girl = female
        }

		elvish_high_nobility = {
			index = 206
			male = {
				1 = empty	#these are empty as the other local clothes will allow for crowns (e.g. western clothing for moon elves)
			}
			female = {
				#3 = empty
				1 = female_headgear_secular_mena_nobility_01
				1 = female_headgear_secular_byzantine_high_nobility_01
				1 = female_headgear_secular_indian_nobility_02
			}
			boy = male
            girl = female
		}

		elvish_royalty = {
			index = 207
			male = {
				1 = empty
			}
			female = {
				#3 = empty
				1 = female_headgear_secular_mena_nobility_01
				1 = female_headgear_secular_byzantine_high_nobility_01	#jeweled top
				1 = female_headgear_secular_indian_nobility_02	#noble dupatta
			}
			boy = male
            girl = female
		}

		elvish_common = {
			index = 208
			male = {
				1 = empty
			}
			female = {
				#3 = empty	#elves just dont wear headgear as much!	#elves in general have less chance for headgear so its handled in 01_headgear
				1 = female_headgear_secular_indian_common_01	#simple dupatta
				1 = female_headgear_secular_indian_nobility_02	#noble dupatta
			}
			boy = male
            girl = female
		}

		elvish_imperial = {
			index = 209
			male = {
				1 = male_headgear_secular_indian_imperial_01
			}
			female = {
				1 = female_headgear_secular_indian_imperial_01			
				1 = female_headgear_secular_indian_nobility_02	#noble dupatta
			}
			boy = male
            girl = female
		}

		elvish_war = {
			index = 210
			male = {
				1 = empty			#this is to just make elves not use helms really	
			}
			female = {
				1 = empty		
			}
			boy = male
            girl = female
		}


		#Anbennar Bespoke Crowns
		anb_crown_dameria = {
			index = 211
			male = {
				1 = male_headgear_secular_sub_saharan_imperial_01
				
			}
			female = {
				#1 = female_headgear_secular_mena_nobility_01	#its kinda like a henin right? ideally its a henin with a crown
				1 = female_headgear_secular_steppe_royalty_01	#wacky but henin-like right
				
			}
			boy = male
            girl = female
		}
		anb_crown_lorent = {
			index = 212
			male = {
				1 = male_headgear_secular_steppe_royalty_01	#cool leaf crown
				
			}
			female = {
				1 = female_headgear_secular_indian_imperial_01	#ruby crown?
				
			}
			boy = male
            girl = female
		}
		anb_crown_phoenix_empire = {
			index = 213
			male = {
				1 = male_headgear_religious_jewish_head_01	#I mean, when else is this gonna be used?
				1 = male_headgear_secular_western_high_nobility_01	#Jaher's circlet is cooler
				
			}
			female = {
				1 = female_headgear_secular_mena_royalty_01
				
			}
			boy = male
            girl = female
		}



		################################ VANILLA #####################################################################



       no_headgear = {
           index = 0
           male = {
               1 = empty
           }
           female = male
           boy = male
           girl = male
       }

		all_headgear = {
			index = 1
			male = {
				1 = male_headgear_secular_western_common_01
                1 = male_headgear_secular_western_common_02
				1 = male_headgear_secular_dde_hre_common_02
				1 = male_headgear_secular_dde_hre_high_nobility_02
				1 = male_headgear_secular_western_high_nobility_01
				1 = male_headgear_secular_western_royalty_01
				1 = male_headgear_secular_western_royalty_02
				1 = male_headgear_secular_dde_hre_imperial_01
				1 = male_headgear_secular_western_war_nobility_01
				1 = male_headgear_secular_mena_royalty_01
				1 = male_headgear_secular_mena_common_01
                1 = male_headgear_secular_mena_nobility_01
                1 = male_headgear_secular_mena_high_nobility_01
				1 = male_headgear_religious_dde_muslim_head_01
				1 = male_headgear_secular_mena_imperial_01
				1 = male_headgear_secular_mena_war_nobility_01
				1 = male_headgear_secular_crusades_mena_war_nobility_01
				1 = male_headgear_religious_catholic_high_01
				1 = male_headgear_religious_dde_catholic_high_01
				1 = male_headgear_religious_catholic_head_01
				1 = male_headgear_secular_dde_hre_royalty_02
				1 = male_headgear_secular_dde_abbasid_high_nobility_01
				1 = male_headgear_secular_dde_abbasid_common_01
				1 = male_headgear_secular_dde_abbasid_common_02
				1 = male_headgear_secular_dde_abbasid_imperial_01
				1 = male_headgear_secular_dde_abbasid_war_nobility_01
				1 = male_headgear_secular_dde_abbasid_royalty_01
				1 = male_headgear_secular_northern_war_nobility_01
				1 = male_headgear_secular_northern_common_01
				1 = male_headgear_secular_byzantine_high_nobility_01
				1 = male_headgear_secular_byzantine_nobility_01
				1 = male_headgear_secular_byzantine_imperial_01
				1 = male_headgear_secular_byzantine_war_nobility_01
				1 = male_headgear_secular_byzantine_royalty_01
				1 = male_headgear_secular_steppe_nobility_01
				1 = male_headgear_secular_steppe_common_01
				1 = male_headgear_secular_steppe_royalty_01
				1 = male_headgear_secular_steppe_war_nobility_01
				1 = male_headgear_secular_sub_saharan_high_nobility_01
				1 = male_headgear_secular_sub_saharan_common_01
				1 = male_headgear_secular_sub_saharan_royalty_01
				1 = male_headgear_secular_sub_saharan_imperial_01
				1 = male_headgear_secular_indian_high_nobility_01
				1 = male_headgear_secular_indian_royalty_01
				1 = male_headgear_secular_indian_imperial_01
				1 = male_headgear_secular_indian_war_nobility_01
				1 = male_headgear_secular_crusades_western_war_nobility_01
				1 = male_headgear_secular_crusades_mena_war_nobility_01
			# RELIGIOUS #
				1 = male_headgear_religious_zorastrian_high_01
				1 = male_headgear_religious_jewish_head_01
				1 = male_headgear_religious_muslim_high_01
				1 = male_headgear_religious_dde_muslim_head_01
				1 = male_headgear_religious_african_high_01
				1 = male_headgear_religious_steppe_high_01
				1 = male_headgear_religious_northern_high_01
			# FP1 # 
				1 = male_headgear_secular_fp1_common_01
				1 = male_headgear_secular_fp1_common_02
				1 = male_headgear_secular_fp1_nobility_01
				1 = male_headgear_secular_fp1_war_nobility_01
				1 = male_headgear_secular_fp1_war_nobility_02
				1 = male_headgear_secular_fp1_royalty_01
				1 = male_headgear_secular_fp1_imperial_01
				1 = male_headgear_secular_rtt_nobility_01_low
			# EP1 # 
				1 = male_headgear_secular_ep1_western_royalty_01
				1 = male_headgear_secular_ep1_mena_royalty_01
				1 = male_headgear_secular_ep1_indian_royalty_01
				1 = male_headgear_secular_ep1_jester_01
				1 = male_headgear_secular_ep1_crown_of_justinian
				1 = male_headgear_secular_ep1_crown_of_lombardy
				1 = male_headgear_secular_ep1_sassanid_crown
				1 = male_headgear_secular_ep1_diamond_crown
				1 = male_headgear_secular_ep1_sub_saharan_royalty_01
				1 = male_headgear_secular_ep1_mena_royalty_02
				1 = male_headgear_secular_ep1_diamond_crown
				1 = male_headgear_secular_ep1_crown_of_justinian
				1 = male_headgear_secular_ep1_crown_of_lombardy
			# FP2 #
					# Christian #
				3 = male_headgear_secular_fp2_iberian_christian_common_01
				3 = male_headgear_secular_fp2_iberian_christian_nobility_01_low
				3 = male_headgear_secular_fp2_iberian_christian_nobility_01_high
				3 = male_headgear_secular_fp2_iberian_christian_high_nobility_01_low
				3 = male_headgear_secular_fp2_iberian_christian_high_nobility_01_high
				3 = male_headgear_secular_fp2_iberian_christian_royalty_01
				3 = male_headgear_secular_fp2_iberian_christian_war_nobility_01
					# Muslim #
				3 = male_headgear_secular_fp2_iberian_muslim_common_01_low
				3 = male_headgear_secular_fp2_iberian_muslim_common_01_high
				3 = male_headgear_secular_fp2_iberian_muslim_nobility_01
				3 = male_headgear_secular_fp2_iberian_muslim_high_nobility_01
				3 = male_headgear_secular_fp2_iberian_muslim_royalty_01
				3 = male_headgear_secular_fp2_iberian_muslim_war_nobility_01
			}
			female = {
				1 = female_headgear_secular_western_nobility_01
                1 = female_headgear_secular_western_nobility_01_2
				1 = female_headgear_secular_western_nobility_02
				1 = female_headgear_secular_western_nobility_03
				1 = female_headgear_secular_dde_hre_common_02
				1 = female_headgear_secular_dde_hre_high_nobility_01
				1 = female_headgear_secular_western_high_nobility_01
				1 = female_headgear_secular_western_royalty_01
				1 = female_headgear_secular_western_royalty_02
				1 = female_headgear_secular_western_war_nobility_01
				1 = female_headgear_secular_mena_royalty_01
				1 = female_headgear_secular_mena_common_01
                1 = female_headgear_secular_mena_common_02
                1 = female_headgear_secular_mena_nobility_01
                1 = female_headgear_secular_dde_abbasid_common_01
                1 = female_headgear_secular_mena_royalty_01
                1 = female_headgear_secular_mena_war_nobility_01
                1 = female_headgear_religious_catholic_devoted_01
                1 = female_headgear_secular_dde_hre_royalty_01
                1 = female_headgear_secular_dde_abbasid_high_nobility_01
                1 = female_headgear_secular_dde_abbasid_common_02
                1 = female_headgear_secular_dde_abbasid_war_nobility_01
               	1 = female_headgear_secular_dde_abbasid_royalty_01
                1 = female_headgear_secular_northern_war_nobility_01
                1 = female_headgear_secular_northern_common_01
                1 = female_headgear_secular_byzantine_high_nobility_01
                1 = female_headgear_secular_byzantine_nobility_01
                5 = female_headgear_secular_byzantine_common_01
                1 = female_headgear_secular_byzantine_imperial_01	
                1 = female_headgear_secular_byzantine_war_nobility_01
                1 = female_headgear_secular_byzantine_royalty_01
                1 = female_headgear_secular_steppe_high_nobility_01
                1 = female_headgear_secular_steppe_common_01
                1 = female_headgear_secular_steppe_war_nobility_01
                1 = female_headgear_secular_mena_nobility_01
                1 = female_headgear_secular_sub_saharan_common_01
                1 = female_headgear_secular_mena_royalty_01
                1 = female_headgear_secular_indian_nobility_02
                1 = female_headgear_secular_indian_common_01
                1 = female_headgear_secular_indian_royalty_01
                1 = female_headgear_secular_indian_royalty_01
                1 = female_headgear_secular_indian_war_nobility_01
                1 = female_headgear_secular_crusades_western_war_nobility_01
                1 = female_headgear_secular_crusades_mena_war_nobility_01
                1 = female_headgear_religious_muslim_high_01
                1 = female_headgear_religious_african_high_01
                1 = female_headgear_religious_steppe_high_01
                1 = female_headgear_religious_northern_high_01
                1 = female_headgear_secular_fp1_common_01
				1 = female_headgear_secular_fp1_common_02
				1 = female_headgear_secular_fp1_nobility_01
				1 = female_headgear_secular_fp1_nobility_02
				1 = female_headgear_secular_fp1_nobility_03	
				1 = female_headgear_secular_fp1_war_nobility_01	
				1 = female_headgear_secular_fp1_war_nobility_02	
				1 = female_headgear_secular_fp1_royalty_01	
				1 = female_headgear_secular_fp1_imperial_01	
				1 = female_headgear_secular_rtt_nobility_01_low
			# EP1 #
				1 = female_headgear_secular_ep1_western_royalty_01
				1 = female_headgear_secular_ep1_western_royalty_01
				1 = female_headgear_secular_ep1_mena_royalty_01
				1 = female_headgear_secular_ep1_indian_royalty_01
				1 = female_headgear_secular_ep1_jester_01
				1 = female_headgear_secular_ep1_crown_of_justinian
				1 = female_headgear_secular_ep1_crown_of_lombardy
				1 = female_headgear_secular_ep1_sassanid_crown
				1 = female_headgear_secular_ep1_diamond_crown
				1 = female_headgear_secular_ep1_sub_saharan_royalty_01
				1 = female_headgear_secular_ep1_mena_royalty_02
				1 = female_headgear_secular_ep1_diamond_crown
				1 = female_headgear_secular_ep1_crown_of_justinian
				1 = female_headgear_secular_ep1_crown_of_lombardy
			# FP2 # 
					# Christian #
				3 = female_headgear_secular_fp2_iberian_christian_common_01
				3 = female_headgear_secular_fp2_iberian_christian_nobility_01_low
				3 = female_headgear_secular_fp2_iberian_christian_nobility_01_high
				3 = female_headgear_secular_fp2_iberian_christian_high_nobility_01
				3 = female_headgear_secular_fp2_iberian_christian_royalty_01
				3 = female_headgear_secular_fp2_iberian_christian_war_nobility_01
					# Muslim #
				3 = female_headgear_secular_fp2_iberian_muslim_common_01
				3 = female_headgear_secular_fp2_iberian_muslim_nobility_01
				3 = female_headgear_secular_fp2_iberian_muslim_high_nobility_01_low
				3 = female_headgear_secular_fp2_iberian_muslim_high_nobility_01_high
				3 = female_headgear_secular_fp2_iberian_muslim_royalty_01
				3 = female_headgear_secular_fp2_iberian_muslim_war_nobility_01
			}
			boy = male
          	girl = female
		}

		western_nobility = {
            index = 2
            male = {
                20 = empty
                10 = male_headgear_secular_western_common_01
                10 = male_headgear_secular_western_common_02
    			# 0 = male_headgear_secular_western_nobility_01
				# 0 = male_headgear_secular_western_nobility_02
				10 = male_headgear_secular_dde_hre_common_02
            }
            female = {
                30 = empty
                10 = female_headgear_secular_western_nobility_01
                10 = female_headgear_secular_western_nobility_01_2
				10 = female_headgear_secular_western_nobility_02
				10 = female_headgear_secular_western_nobility_03
				10 = female_headgear_secular_dde_hre_common_02
            }
            boy = male
            girl = female
        }

		western_high_nobility = {
			index = 3
			male = {
				1 = male_headgear_secular_western_high_nobility_01
			}
			female = {
				1 = female_headgear_secular_western_high_nobility_01
			}
			boy = male
            girl = female
		}

		western_royalty = {
			index = 4
			male = {
				1 = male_headgear_secular_western_royalty_01
				1 = male_headgear_secular_western_royalty_02
			}
			female = {
				1 = female_headgear_secular_western_royalty_01
				1 = female_headgear_secular_western_royalty_02
			}
			boy = male
            girl = female
		}

		western_common = {
			index = 5
			male = {
				1 = male_headgear_secular_western_common_01
				1 = male_headgear_secular_western_common_02
			}
			female = {
				35 = empty
                5 = female_headgear_secular_western_nobility_01
                5 = female_headgear_secular_western_nobility_01_2
				5 = female_headgear_secular_western_nobility_02
				5 = female_headgear_secular_western_nobility_03
			}
			boy = male
            girl = female
		}

		western_imperial = {
			index = 6
			male = {
				1 = male_headgear_secular_dde_hre_imperial_01
				
			}
			female = {
				1 = female_headgear_secular_western_royalty_01
				1 = female_headgear_secular_western_royalty_02				
			}
			boy = male
            girl = female
		}

		western_war = {
			index = 7
			male = {
				1 = male_headgear_secular_western_war_nobility_01
				
			}
			female = {
				1 = female_headgear_secular_western_war_nobility_01
				
			}
			boy = male
            girl = female
		}

		western_stealth = {
			index = 8
			male = {
				1 = male_clothes_situational_western_stealth_hood_01	

			}
			female = {
				1 = female_clothes_situational_western_stealth_hood_01
				
			}
			boy = male
            girl = female
		}

		mena_royalty = {
			index = 9
			male = {
				1 = male_headgear_secular_mena_royalty_01
			}
			female = {
				1 = female_headgear_secular_mena_royalty_01
			}
			boy = male
            girl = female
		}


		mena_low_nobility = {
            index = 10
            male = {
                5 = empty
                10 = male_headgear_secular_mena_common_01
                10 = male_headgear_secular_mena_nobility_01
		
            }
            female = {
                15 = empty
                5 = female_headgear_secular_mena_common_01
                5 = female_headgear_secular_mena_common_02
                5 = female_headgear_secular_mena_nobility_01
            }
            boy = male
            girl = female
        }	

        mena_high_nobility = {
            index = 11
            male = {
                0 = empty
                5 = male_headgear_secular_mena_high_nobility_01
				5 = male_headgear_religious_dde_muslim_head_01
		
            }
            female = {
                0 = empty
                5 = female_headgear_secular_mena_nobility_01
            }
            boy = male
            girl = female
        }	

		mena_common = {
			index = 12
			male = {
				5 = empty
				10 = male_headgear_secular_mena_common_01
				10 = male_headgear_secular_dde_abbasid_common_02
			
			}
			female = {
				10 = empty
				5 = female_headgear_secular_mena_common_01
				5 = female_headgear_secular_mena_common_02
				5 = female_headgear_secular_dde_abbasid_common_01
				
			}
			boy = male
            girl = female
		}

		mena_imperial = {
			index = 13
			male = {
				1 = male_headgear_secular_mena_imperial_01
				
			}
			female = {
				1 = female_headgear_secular_mena_royalty_01
				
			}
			boy = male
            girl = female
		}

		mena_war = {
			index = 14
			male = {
				1 = male_headgear_secular_mena_war_nobility_01
				1 = male_headgear_secular_crusades_mena_war_nobility_01
				
			}
			female = {
				1 = female_headgear_secular_mena_war_nobility_01
				
			}
			boy = male
            girl = female
		}

		mena_royalty = {
			index = 15
			male = {
				1 = male_headgear_secular_mena_royalty_01
				
			}
			female = {
				1 = female_headgear_secular_mena_royalty_01
				
			}
			boy = male
            girl = female
		}

		mena_stealth = {
			index = 16
			male = {
				1 = male_clothes_situational_mena_stealth_hood_01
				
			}
			female = {
				1 = female_clothes_situational_mena_stealth_hood_01
				
			}
			boy = male
            girl = female
		}

		monarchs_journey_low = {
			index = 17
			male = {
				1 = male_headgear_secular_rtt_nobility_01_low
				#1 = male_headgear_secular_rtt_jester_01_low
			}
			female = {
				1 = female_headgear_secular_rtt_nobility_01_low
				#1 = female_headgear_secular_ep1_jester_01
			}
			boy = male
            girl = female
		}

		monarchs_journey_high = {
			index = 18
			male = {
				1 = male_headgear_secular_rtt_nobility_01_high
				#1 = male_headgear_secular_rtt_jester_01_low
			}
			female = {
				1 = female_headgear_secular_rtt_nobility_01_low
			}
			boy = male
            girl = female
		}

        catholic_high = { # Duplicate weights to make seed different from religious_catholic_high_clothes clothes gene
            index = 19
            male = {
                2 = male_headgear_religious_catholic_high_01
				1 = male_headgear_religious_dde_catholic_high_01
				1 = male_headgear_religious_dde_catholic_high_01
            }
            female = {
                1 = female_headgear_religious_catholic_devoted_01
            }
            boy = male
            girl = female
        }

        catholic_head = {
            index = 20
            male = {
                1 = male_headgear_religious_catholic_head_01
            }
            female = {
            	1 = female_headgear_religious_catholic_devoted_01
            }
            boy = male
            girl = female
        }

        dde_hre_high_nobility = {
            index = 21
            male = {
                # 1 = male_headgear_secular_dde_hre_high_nobility_01
				1 = male_headgear_secular_dde_hre_high_nobility_02
            }
            female = {
               1 = female_headgear_secular_dde_hre_high_nobility_01
            }
            boy = male
            girl = female
        }

        dde_hre_nobility = {
            index = 22
            male = {
                20 = empty
                # 1 = male_headgear_secular_dde_hre_nobility_01
				#1 = male_headgear_secular_dde_hre_nobility_02
            }
            female = {
#                20 = empty
#                1 = female_headgear_secular_dde_hre_nobility_01
            }
            boy = male
            girl = female
        }	

		dde_hre_common = {
			index = 23
			male = {
				1 = male_headgear_secular_dde_hre_common_01
				# 1 = male_headgear_secular_dde_hre_common_02
			}
			female = {
				1 = female_headgear_secular_dde_hre_common_01
				# 1 = female_headgear_secular_dde_hre_common_02
			}
			boy = male
            girl = female
		}

		dde_hre_imperial = {
			index = 24
			male = {
				1 = male_headgear_secular_western_imperial_01
				
			}
			female = {
				1 = female_headgear_secular_dde_hre_royalty_01
				
			}
			boy = male
            girl = female
		}

		dde_hre_war = {
			index = 25
			male = {
				1 = male_headgear_secular_dde_hre_war_nobility_01
				
			}
			female = {
				1 = female_headgear_secular_dde_hre_war_nobility_01
				
			}
			boy = male
            girl = female
		}

		dde_hre_royalty = {
			index = 26
			male = {
				# 1 = male_headgear_secular_dde_hre_royalty_01
				1 = male_headgear_secular_dde_hre_royalty_02
				
			}
			female = {
				1 = female_headgear_secular_dde_hre_royalty_01
				
			}
			boy = male
            girl = female
		}

		dde_abbasid_high_nobility = {
            index = 27
            male = {
                1 = male_headgear_secular_dde_abbasid_high_nobility_01
              	# 1 = male_headgear_secular_dde_abbasid_common_01_high
            }
            female = {
            	1 = female_headgear_secular_mena_nobility_01
                1 = female_headgear_secular_dde_abbasid_high_nobility_01
                # 1 = female_headgear_secular_dde_abbasid_high_nobility_02
            }
        }	

		dde_abbasid_common = {
			index = 28
			male = {
				1 = male_headgear_secular_dde_abbasid_common_01
				# 1 = male_headgear_secular_dde_abbasid_common_02
			}
			female = {
				# 1 = female_headgear_secular_dde_abbasid_common_01
				1 = female_headgear_secular_dde_abbasid_common_02
			}
			boy = male
            girl = female
		}

		dde_abbasid_imperial = {
			index = 29
			male = {
				1 = male_headgear_secular_dde_abbasid_imperial_01
				
			}
			female = {
			#	1 = female_headgear_secular_dde_abbasid_nobility_01
			}
			boy = male
            girl = female
		}

		dde_abbasid_war = {
			index = 30
			male = {
				1 = male_headgear_secular_dde_abbasid_war_nobility_01
				
			}
			female = {
				1 = female_headgear_secular_dde_abbasid_war_nobility_01
				
			}
			boy = male
            girl = female
		}

		dde_abbasid_royalty = {
			index = 31
			male = {
				1 = male_headgear_secular_dde_abbasid_royalty_01

				
			}
			female = {
				1 = female_headgear_secular_dde_abbasid_royalty_01
				
			}
			boy = male
            girl = female
		}


		northern_war = {
			index = 32
			male = {
				1 = male_headgear_secular_northern_war_nobility_01
			
				}
			female = {
				1 = female_headgear_secular_northern_war_nobility_01
				
			}
			boy = male
            girl = female
		}
		
		northern_common = {
			index = 33
			male = {
				1 = empty
				1 = male_headgear_secular_northern_common_01
				
			}
			female = {
				10 = empty
				2 = female_headgear_secular_northern_common_01
				
			}
		}


		 byzantine_high_nobility = {
            index = 34
            male = {
                5 = male_headgear_secular_byzantine_high_nobility_01
				
            }
            female = {
                5 = female_headgear_secular_byzantine_high_nobility_01
            }
            boy = male
            girl = female
        }	

         byzantine_nobility = {
            index = 35
            male = {
                5 = empty
                5 = male_headgear_secular_byzantine_nobility_01
            }
            female = {
                5 = empty
                5 = female_headgear_secular_byzantine_nobility_01
            }
            boy = male
            girl = female
        }	

		byzantine_common = {
			index = 36
			male = {
				10 = empty
				5 = male_headgear_secular_byzantine_common_01
			}
			female = {
				10 = empty
				5 = female_headgear_secular_byzantine_common_01
			}
			boy = male
            girl = female
		}

		byzantine_imperial = {
			index = 37
			male = {
				1 = male_headgear_secular_byzantine_imperial_01
				
			}
			female = {
				1 = female_headgear_secular_byzantine_imperial_01				
			}
			boy = male
            girl = female
		}

		byzantine_war = {
			index = 38
			male = {
				1 = male_headgear_secular_byzantine_war_nobility_01
				
			}
			female = {
				1 = female_headgear_secular_byzantine_war_nobility_01
				
			}
			boy = male
            girl = female
		}

        byzantine_royalty = {
            index = 39
            male = {
                1 = male_headgear_secular_byzantine_royalty_01
                
            }
            female = {
                5 = female_headgear_secular_byzantine_royalty_01
                
            }
            boy = male
            girl = female
        }

		steppe_high_nobility = {
            index = 40
            male = {
                5 = male_headgear_secular_steppe_nobility_01
				
            }
            female = {
                5 = female_headgear_secular_steppe_high_nobility_01
            }
            boy = male
            girl = female
        }	

        steppe_nobility = {
            index = 41
            male = {
				5 = empty
				5 = male_headgear_secular_steppe_common_01
            }
            female = {
                5 = empty
                5 = female_headgear_secular_steppe_common_01
            }
            boy = male
            girl = female
        }	

		steppe_common = {
			index = 42
			male = {
				5 = empty
				5 = male_headgear_secular_steppe_common_01
		
			}
			female = {
				5 = empty
				5 = female_headgear_secular_steppe_common_01
			}
			boy = male
            girl = female
		}

		steppe_royalty = {
			index = 43
			male = {
				5 = male_headgear_secular_steppe_royalty_01
				
			}
			female = {
				5 = female_headgear_secular_steppe_high_nobility_01
				
			}
			boy = male
            girl = female
		}

		steppe_war = {
			index = 44
			male = {
				1 = male_headgear_secular_steppe_war_nobility_01
				
			}
			female = {
				1 = female_headgear_secular_steppe_war_nobility_01
				
			}
			boy = male
            girl = female
		}

	    sub_saharan_high_nobility = {
            index = 45
            male = {
                1 = male_headgear_secular_sub_saharan_high_nobility_01
            }
            female = {
            	1 = female_headgear_secular_mena_nobility_01
            }
            boy = male
            girl = female
        }	

		sub_saharan_common = {
			index = 46
			male = {
				5 = empty
				5 = male_headgear_secular_sub_saharan_common_01
		
			}
			female = {
				5 = empty
				5 = female_headgear_secular_sub_saharan_common_01


			}
			boy = male
            girl = female
		}

		sub_saharan_royalty = {
			index = 47
			male = {
				1 = male_headgear_secular_sub_saharan_royalty_01
				
			}
			female = {
				1 = female_headgear_secular_mena_royalty_01
				
			}
			boy = male
            girl = female
		}

		sub_saharan_imperial = {
			index = 48
			male = {
				1 = male_headgear_secular_sub_saharan_imperial_01
				
			}
			female = {
				1 = female_headgear_secular_mena_royalty_01
				
			}
			boy = male
            girl = female
		}

	    indian_high_nobility = {
            index = 49
            male = {
                5 = male_headgear_secular_indian_high_nobility_01
            }
            female = {
                5 = female_headgear_secular_indian_nobility_02

            }
            boy = male
            girl = female
        }	

        indian_nobility = {
            index = 50
            male = {
                5 = empty
                5 = male_headgear_secular_mena_common_01
            }
            female = {
                10 = empty
                5 = female_headgear_secular_indian_common_01
                5 = female_headgear_secular_indian_nobility_02
            }
            boy = male
            girl = female
        }

		indian_common = {
			index = 51
			male = {
				5 = empty
				5 = male_headgear_secular_mena_common_01
		
			}
			female = {
				5 = empty
				5 = female_headgear_secular_indian_common_01


			}
			boy = male
            girl = female
		}

		indian_royalty = {
			index = 52
			male = {
				5 = male_headgear_secular_indian_royalty_01
				
			}
			female = {
				5 = female_headgear_secular_indian_royalty_01
				
			}
			boy = male
            girl = female
		}

		indian_imperial = {
			index = 53
			male = {
				5 = male_headgear_secular_indian_imperial_01
				
			}
			female = {
				5 = female_headgear_secular_indian_royalty_01
				
			}
			boy = male
            girl = female
		}

		indian_war = {
			index = 54
			male = {
				5 = male_headgear_secular_indian_war_nobility_01
				
			}
			female = {
				1 = female_headgear_secular_indian_war_nobility_01
				
			}
			boy = male
            girl = female
		}

		crusades_western_war = {
			index = 55
			male = {
				1 = male_headgear_secular_crusades_western_war_nobility_01
				
			}
			female = {
				1 = female_headgear_secular_crusades_western_war_nobility_01
				
			}
			boy = male
            girl = female
		}

		crusades_mena_war = {
			index = 56
			male = {
				1 = male_headgear_secular_crusades_mena_war_nobility_01
				
			}
			female = {
				1 = female_headgear_secular_crusades_mena_war_nobility_01
				
			}
			boy = male
            girl = female
		}


		#religious_dde_catholic = {
		#	index = 57
		#	male = {
		#		1 = male_headgear_religious_dde_catholic_high_01
		#		
		#	}
		#	female = {
		#	#	1 = female_headgear_religious_dde_catholic_high_01
		#		
		#	}
		#	boy = male
        #    girl = female
		#}

		religious_catholic_devoted = {
			index = 58
			male = {
				1 = empty
				
			}
			female = {
				1 = female_headgear_religious_catholic_devoted_01
				
			}
			boy = male
            girl = female
		}

		religious_orthodox_high = {
			index = 59
			male = {
				1 = male_headgear_religious_orthodox_high_01
				
			}
			female = {
				1 = female_headgear_religious_catholic_devoted_01
				
			}
			boy = male
            girl = female
		}

		religious_orthodox_head = {
			index = 60
			male = {
				1 = male_headgear_religious_orthodox_head_01
				
			}
			female = {
				1 = female_headgear_religious_catholic_devoted_01
				
			}
			boy = male
            girl = female
		}

		religious_zoroastrian_high = {
			index = 61
			male = {
				1 = male_headgear_religious_zorastrian_high_01
				
			}
			female = {
				# 1 = female_headgear_religious_zoroastrian_high_01
				
			}
			boy = male
            girl = female
		}

		religious_jewish_high = {
			index = 62
			male = {
				1 = male_headgear_religious_zorastrian_high_01
				
			}
			female = {
			#	1 = female_headgear_religious_jewish_high_01
				
			}
			boy = male
            girl = female
		}

		religious_jewish_head = {
			index = 63
			male = {
				1 = male_headgear_religious_jewish_head_01
				
			}
			female = {
			#	1 = female_headgear_religious_jewish_head_01
				
			}
			boy = male
            girl = female
		}

		religious_muslim_high = {
			index = 64
			male = {
				1 = male_headgear_religious_muslim_high_01
				
			}
			female = {
				1 = female_headgear_religious_muslim_high_01
				
			}
			boy = male
            girl = female
		}

		religious_muslim_head = {
			index = 65
			male = {
				1 = male_headgear_religious_dde_muslim_head_01
				
			}
			female = {
				1 = female_headgear_religious_muslim_high_01
				
			}
			boy = male
            girl = female
		}

		#religious_dde_muslim_high = {
		#	index = 66
		#	male = {
		#		1 = male_headgear_religious_dde_muslim_high_01
		#		
		#	}
		#	female = {
		#		1 = female_headgear_secular_mena_royalty_01
		#		
		#	}
		#	boy = male
        #    girl = female
		#}

		religious_african_high = {
			index = 67
			male = {
				1 = male_headgear_religious_african_high_01
				
			}
			female = {
				1 = female_headgear_religious_african_high_01
				
			}
			boy = male
            girl = female
		}

		religious_steppe_high = {
			index = 68
			male = {
				1 = male_headgear_religious_steppe_high_01
				
			}
			female = {
				1 = female_headgear_religious_steppe_high_01
				
			}
			boy = male
            girl = female
		}

		religious_northern_high = {
			index = 69
			male = {
				1 = male_headgear_religious_northern_high_01
				
			}
			female = {
				1 = female_headgear_religious_northern_high_01
				
			}
			boy = male
            girl = female
		}		

	## FP1 - Fury of the Northmen ##

		fp1_common = {
			index = 70
			male = {
				1 = male_headgear_secular_fp1_common_01
				1 = male_headgear_secular_fp1_common_02
				
			}
			female = {
				1 = female_headgear_secular_fp1_common_01
				1 = female_headgear_secular_fp1_common_02
				
			}
		}

		fp1_low_nobility = {
			index = 71
			male = {
				2 = male_headgear_secular_fp1_nobility_01
				1 = male_headgear_secular_fp1_common_01
				1 = male_headgear_secular_fp1_common_02
				
			}
			female = {
				1 = female_headgear_secular_fp1_common_01
				1 = female_headgear_secular_fp1_common_02
				
			}
		}

		fp1_nobility = {
			index = 72
			male = {
				1 = male_headgear_religious_northern_high_01

			}
			female = {
				1 = female_headgear_secular_fp1_nobility_01
				1 = female_headgear_secular_fp1_nobility_02
				1 = female_headgear_secular_fp1_nobility_03		

			}
		}

		fp1_war = {
			index = 73
			male = {
				1 = male_headgear_secular_fp1_war_nobility_01
				1 = male_headgear_secular_fp1_war_nobility_02

			}
			female = {
				1 = female_headgear_secular_fp1_war_nobility_01	
				1 = female_headgear_secular_fp1_war_nobility_02		
						
			}
		}

		fp1_war_common = { # For commoners to use, non-gilded version only
			index = 74
			male = {
				1 = male_headgear_secular_fp1_war_nobility_02

			}
			female = {
				1 = female_headgear_secular_fp1_war_nobility_02	
						
			}
		}

		fp1_royalty = {
			index = 75
			male = {
				1 = male_headgear_secular_fp1_royalty_01

			}
			female = {
				1 = female_headgear_secular_fp1_royalty_01		
						
			}
		}

		fp1_imperial = {
			index = 76
			male = {
				1 = male_headgear_secular_fp1_imperial_01

			}
			female = {
				1 = female_headgear_secular_fp1_imperial_01		
						
			}
		}

		monarchs_journey_unleashed = {
			index = 77
			male = {
				1 = male_headgear_secular_rtt_nobility_01_low
			}
			female = {
				3 = empty
				1 = female_headgear_secular_rtt_nobility_01_low
			}
			boy = male
            girl = female
		}
	
	## EP1 - ROCCO ##
	
		ep1_western_royalty = {
			index = 78
			male = {
				1 = male_headgear_secular_ep1_western_royalty_01
			}
			female = {
				1 = female_headgear_secular_ep1_western_royalty_01
			}
		}

		ep1_steppe_royalty = {
			index = 79
			male = {
				1 = male_headgear_secular_ep1_mena_royalty_01
			}
			female = {
				1 = female_headgear_secular_ep1_mena_royalty_01
			}
		}

		ep1_indian_royalty = {
			index = 80
			male = {
				1 = male_headgear_secular_ep1_indian_royalty_01
			}
			female = {
				1 = female_headgear_secular_ep1_indian_royalty_01
			}
		}

		ep1_jester = {
			index = 81
			male = {
				50 = male_headgear_secular_ep1_jester_01
			}
			female = {
				50 = female_headgear_secular_ep1_jester_01
			}
			boy = male
			girl = female
		}

		ep1_crown_of_justinian = {
			index = 82
			male = {
				50 = male_headgear_secular_ep1_crown_of_justinian
			}
			female = {
				50 = female_headgear_secular_ep1_crown_of_justinian
			}
			boy = male
			girl = female
		}

		ep1_crown_of_lombardy = {
			index = 83
			male = {
				50 = male_headgear_secular_ep1_crown_of_lombardy
			}
			female = {
				50 = female_headgear_secular_ep1_crown_of_lombardy
			}
			boy = male
			girl = female
		}

		ep1_sassanid_crown = {
			index = 84
			male = {
				50 = male_headgear_secular_ep1_sassanid_crown
			}
			female = {
				50 = female_headgear_secular_ep1_sassanid_crown
			}
			boy = male
			girl = female
		}

		ep1_diamond_crown = {
			index = 85
			male = {
				50 = male_headgear_secular_ep1_diamond_crown
			}
			female = {
				50 = female_headgear_secular_ep1_diamond_crown
			}
			boy = male
			girl = female
		}
		
		ep1_sub_saharan_royalty = {
			index = 86
			male = {
				1 = male_headgear_secular_ep1_sub_saharan_royalty_01
			}
			female = {
				1 = female_headgear_secular_ep1_sub_saharan_royalty_01
			}
			boy = male
			girl = female
		}

		ep1_mena_royalty = {
			index = 87
			male = {
				1 = male_headgear_secular_ep1_mena_royalty_02
			}
			female = {
				1 = female_headgear_secular_ep1_mena_royalty_02
			}
			boy = male
			girl = female
		}

		ep1_indian_imperial = {
			index = 88
			male = {
				1 = male_headgear_secular_ep1_diamond_crown
			}
			female = {
				1 = female_headgear_secular_ep1_diamond_crown
			}
			boy = male
			girl = female
		}

		ep1_byzantine_imperial = {
			index = 89
			male = {
				1 = male_headgear_secular_ep1_crown_of_justinian
			}
			female = {
				1 = female_headgear_secular_ep1_crown_of_justinian
			}
			boy = male
			girl = female
		}

		ep1_italian_royalty = {
			index = 90
			male = {
				1 = male_headgear_secular_ep1_crown_of_lombardy
			}
			female = {
				1 = female_headgear_secular_ep1_crown_of_lombardy
			}
			boy = male
			girl = female
		}

		ep1_persian_imperial = {
			index = 91
			male = {
				1 = male_headgear_secular_ep1_sassanid_crown
			}
			female = {
				1 = female_headgear_secular_ep1_sassanid_crown
			}
			boy = male
			girl = female
		}

		## FP2 - Fate of Iberia ##
	
		fp2_christian_common = {
			index = 92
			male = {
				10 = empty
				20 = male_headgear_secular_fp2_iberian_christian_common_01
			}
			female = {
				10 = empty
				10 = female_headgear_secular_fp2_iberian_christian_common_01
			}
			boy = male
			girl = female
		}
		
		fp2_christian_low_nobility = {
			index = 93
			male = {
				1 = male_headgear_secular_fp2_iberian_christian_nobility_01_low
				1 = male_headgear_secular_fp2_iberian_christian_high_nobility_01_low
			}
			female = {
				1 = female_headgear_secular_fp2_iberian_christian_nobility_01_low
				1 = female_headgear_secular_fp2_iberian_christian_high_nobility_01
			}
			boy = male
			girl = female
		}
		
		fp2_christian_high_nobility = {
			index = 94
			male = {
				
				1 = male_headgear_secular_fp2_iberian_christian_nobility_01_high
				1 = male_headgear_secular_fp2_iberian_christian_high_nobility_01_high
			}
			female = {
				1 = female_headgear_secular_fp2_iberian_christian_high_nobility_01
				1 = female_headgear_secular_fp2_iberian_christian_nobility_01_high
			}
			boy = male
			girl = female
		}

		fp2_christian_royalty = {
			index = 95
			male = {
				1 = male_headgear_secular_fp2_iberian_christian_royalty_01
			}
			female = {
				1 = female_headgear_secular_fp2_iberian_christian_royalty_01
			}
			boy = male
			girl = female
		}
		
		fp2_christian_war_nobility = {
			index = 96
			male = {
				1 = male_headgear_secular_fp2_iberian_christian_war_nobility_01
			}
			
			female = {
				1 = female_headgear_secular_fp2_iberian_christian_war_nobility_01
			}
			boy = male
			girl = female
		}

		fp2_muslim_common = {
			index = 97
			male = {
				1 = male_headgear_secular_fp2_iberian_muslim_common_01_low
			}
			female = {
				1 = female_headgear_secular_fp2_iberian_muslim_common_01
			}
			boy = male
			girl = female
		}
		
		fp2_muslim_low_nobility = {
			index = 98
			male = {
				1 = male_headgear_secular_fp2_iberian_muslim_nobility_01
				1 = male_headgear_secular_fp2_iberian_muslim_common_01_high
			}
			female = {
				1 = female_headgear_secular_fp2_iberian_muslim_high_nobility_01_low
				1 = female_headgear_secular_fp2_iberian_muslim_nobility_01
			}
			boy = male
			girl = female
		}
		
		fp2_muslim_high_nobility = {
			index = 99
			male = {
				1 = male_headgear_secular_fp2_iberian_muslim_high_nobility_01
			}
			female = {
				
				1 = female_headgear_secular_fp2_iberian_muslim_high_nobility_01_high
			}
			boy = male
			girl = female
		}
		
		fp2_muslim_royalty = {
			index = 100
			male = {
				1 = male_headgear_secular_fp2_iberian_muslim_royalty_01
			}
			female = {
				1 = female_headgear_secular_fp2_iberian_muslim_royalty_01
			}
			boy = male
			girl = female
		}

		fp2_muslim_war_nobility = {
			index = 101
			male = {
				1 = male_headgear_secular_fp2_iberian_muslim_war_nobility_01
			}
			
			female = {
				1 = female_headgear_secular_fp2_iberian_muslim_war_nobility_01
			}
			boy = male
			girl = female
		}	

		fp2_scripted_headgear_01 = {
			index = 102
			male = {
				1 = no_headgear
				1 = male_headgear_secular_fp2_iberian_muslim_common_01_low
				1 = male_headgear_secular_fp2_iberian_muslim_high_nobility_01
			}
			boy = male
			girl = male
			female = male
		}

		reward_western_royalty = {
			index = 103
			male = {
				1 = male_headgear_secular_western_royalty_03
			}
			female = {
				1 = female_headgear_secular_western_royalty_03
			}
			boy = male
			girl = male
		}
	}
}

